<?xml version="1.0" encoding="UTF-8" standalone="no"?>

<svg
	xmlns="http://www.w3.org/2000/svg"
	xml:space="preserve"
	x="0px"
	y="0px"
	width="15"
	height="15"
	version="1.1"
	style="shape-rendering:geometricPrecision; text-rendering:geometricPrecision; image-rendering:optimizeQuality; fill-rule:evenodd; clip-rule:evenodd"
	viewBox="0 0 283 283"
	xmlns:xlink="http://www.w3.org/1999/xlink">
	<defs>
		<style type="text/css">
			<![CDATA[
				.str0 {stroke:#FEFEFE;stroke-width:3.76054;stroke-opacity:0.301961}
				.str1 {stroke:#FEFEFE;stroke-width:28.2929}
				.fil1 {fill:none}
				.fil0 {fill:#EBECEC;fill-opacity:0.301961}
			]]>
		</style>
	</defs>
	<g id="Capa_x0020_1">
		<g id="_1543931111392">
			<path class="fil0 str0" d="M269 141c0,-70 -57,-127 -128,-127 -70,0 -127,57 -127,127 0,71 57,128 127,128 71,0 128,-57 128,-128z"/>
			<circle class="fil1 str1" cx="141" cy="141" r="127"/>
			<path class="fil1 str1" d="M101 101c23,-22 58,-22 80,0 23,23 23,58 0,80 -22,23 -57,23 -80,0"/>
		</g>
	</g>
</svg>
