<?xml version="1.0" encoding="UTF-8" standalone="no"?>
<svg
   xmlns:dc="http://purl.org/dc/elements/1.1/"
   xmlns:cc="http://creativecommons.org/ns#"
   xmlns:rdf="http://www.w3.org/1999/02/22-rdf-syntax-ns#"
   xmlns:svg="http://www.w3.org/2000/svg"
   xmlns="http://www.w3.org/2000/svg"
   xmlns:sodipodi="http://sodipodi.sourceforge.net/DTD/sodipodi-0.dtd"
   xmlns:inkscape="http://www.inkscape.org/namespaces/inkscape"
   xml:space="preserve"
   width="70"
   height="70"
   version="1.1"
   style="clip-rule:evenodd;fill-rule:evenodd;image-rendering:optimizeQuality;shape-rendering:geometricPrecision;text-rendering:geometricPrecision"
   viewBox="0 0 30.178572 30.178572"
   id="svg19"
   sodipodi:docname="logo.svg"
   inkscape:version="0.92.1 r15371"><metadata
     id="metadata23"><rdf:RDF><cc:Work
         rdf:about=""><dc:format>image/svg+xml</dc:format><dc:type
           rdf:resource="http://purl.org/dc/dcmitype/StillImage" /><dc:title /></cc:Work></rdf:RDF></metadata><sodipodi:namedview
     pagecolor="#ffffff"
     bordercolor="#666666"
     borderopacity="1"
     objecttolerance="10"
     gridtolerance="10"
     guidetolerance="10"
     inkscape:pageopacity="0"
     inkscape:pageshadow="2"
     inkscape:window-width="1920"
     inkscape:window-height="981"
     id="namedview21"
     showgrid="false"
     showguides="true"
     inkscape:guide-bbox="true"
     inkscape:zoom="3.9730766"
     inkscape:cx="-54.191278"
     inkscape:cy="22.551861"
     inkscape:window-x="0"
     inkscape:window-y="28"
     inkscape:window-maximized="1"
     inkscape:current-layer="text19"
     inkscape:snap-center="false"
     inkscape:snap-object-midpoints="false" /><defs
     id="defs4"><style
       type="text/css"
       id="style2"><![CDATA[
				.fil1 {fill:#FEFEFE}
				.fil0 {fill:#091834}
				.fil2 {fill:#FEFEFE;fill-rule:nonzero}
			]]></style><filter
       inkscape:collect="always"
       style="color-interpolation-filters:sRGB"
       id="filter938"
       x="-0.087600001"
       width="1.1752"
       y="-0.087599999"
       height="1.1752"><feGaussianBlur
         inkscape:collect="always"
         stdDeviation="0.94899999"
         id="feGaussianBlur940" /></filter></defs><path
     class="fil0"
     d="M 6.0892864,2.089286 H 24.089286 c 2.710808,0 4,1.408631 4,4 v 18 c 0,2.48536 -1.381683,4 -4,4 H 6.0892864 c -2.8368601,0 -4,-1.426642 -4,-4 v -18 c 0,-2.535282 1.1843102,-4 4,-4 z"
     id="path7-3"
     inkscape:connector-curvature="0"
     style="clip-rule:evenodd;fill:#091834;fill-rule:evenodd;stroke-width:0.99999994;image-rendering:optimizeQuality;shape-rendering:geometricPrecision;text-rendering:geometricPrecision;filter:url(#filter938)"
     sodipodi:nodetypes="sssssssss" /><g
     style="clip-rule:evenodd;opacity:0.98;fill-rule:evenodd;image-rendering:optimizeQuality;shape-rendering:geometricPrecision;text-rendering:geometricPrecision;"
     id="Capa_x0020_1"
     transform="translate(2.089286,2.089286)"><g
       id="_1907627971056"
       style=""><g
         id="g13"
         style=""><path
           class="fil0"
           d="m 4,0 h 18 c 2.710808,0 4,1.4086307 4,4 v 18 c 0,2.48536 -1.381683,4 -4,4 H 4 C 1.1631399,26 0,24.573358 0,22 V 4 C 0,1.4647175 1.1843102,0 4,0 Z"
           id="path7"
           inkscape:connector-curvature="0"
           style="fill:#091834"
           sodipodi:nodetypes="sssssssss" /><path
           class="fil1"
           d="m 4,1 h 18 c 2,0 3,1 3,3 v 18 c 0,2 -1,3 -3,3 H 4 C 2,25 1,24 1,22 V 4 C 1,2 2,1 4,1 Z"
           id="path9"
           inkscape:connector-curvature="0"
           style="fill:#fefefe" /><path
           class="fil0"
           d="m 4,2 h 18 c 1.482332,0 2,0.871138 2,2 v 18 c 0,1.506626 -0.580232,2 -2,2 H 4 C 2.5631335,24 2,23.222442 2,22 V 4 C 2,2.6871144 2.5345159,2 4,2 Z"
           id="path11"
           inkscape:connector-curvature="0"
           style="fill:#091834"
           sodipodi:nodetypes="sssssssss" /></g></g><g
       aria-label="$_"
       transform="scale(0.91467216,1.0932879)"
       style="font-style:normal;font-weight:normal;font-size:15.97944736px;line-height:1.25;font-family:sans-serif;letter-spacing:0px;word-spacing:0px;fill:#ffffff;fill-opacity:1;stroke:none;stroke-width:0.39948618"
       id="text19"><path
         d="M 9.7887455,18.425301 H 9.0084991 l -0.0078,-2.348542 Q 8.1814378,16.061154 7.362179,15.8895 6.5429203,15.710044 5.715859,15.358933 v -1.404444 q 0.7958514,0.499358 1.6073077,0.756839 0.8192588,0.249679 1.6853324,0.257481 V 11.410886 Q 7.2841544,11.129997 6.4961055,10.458985 5.715859,9.7879729 5.715859,8.6176032 q 0,-1.2718017 0.8504687,-2.0052333 Q 7.4167963,5.8789382 9.0084991,5.7697037 V 3.9361245 h 0.7802464 v 1.8101718 q 0.7256295,0.03121 1.4044435,0.1560493 0.678815,0.117037 1.326419,0.3277035 V 7.5954804 Q 11.872004,7.2677769 11.185387,7.0883202 10.506572,6.9088635 9.7887455,6.8776537 v 3.3316523 q 1.7711595,0.273086 2.6060235,0.975308 0.834863,0.702222 0.834863,1.919406 0,1.318617 -0.889481,2.083258 -0.881678,0.756839 -2.5514055,0.873876 z M 9.0084991,10.068862 V 6.8698512 Q 8.1034132,6.9712832 7.6274628,7.3848138 7.1515125,7.7983445 7.1515125,8.4849613 q 0,0.671012 0.436938,1.0455303 0.4447405,0.3745183 1.4200486,0.5383704 z m 0.7802464,1.498073 v 3.378467 q 0.9909135,-0.132642 1.4902705,-0.561777 0.50716,-0.429136 0.50716,-1.131358 0,-0.686617 -0.483752,-1.092345 -0.475951,-0.405728 -1.5136785,-0.592987 z"
         style="fill:#ffffff;stroke-width:0.39948618"
         id="path3732" /><path
         d="M 22.709627,18.729597 V 19.84535 H 14.407804 V 18.729597 Z"
         style="fill:#ffffff;stroke-width:0.39948618"
         id="path3734" /></g></g></svg>